<svg viewBox="0 0 25 25" fill="none" xmlns="http://www.w3.org/2000/svg">
  <path d="M24.6948 23.2219L17.5854 16.1125C18.9625 14.4115 19.7917 12.25 19.7917 9.89585C19.7917 4.4396 15.3521 0 9.8958 0C4.43955 0 0 4.43955 0 9.8958C0 15.3521 4.4396 19.7917 9.89585 19.7917C12.25 19.7917 14.4115 18.9625 16.1125 17.5854L23.2219 24.6948C23.425 24.8979 23.6917 25 23.9583 25C24.225 25 24.4917 24.8979 24.6948 24.6948C25.1021 24.2875 25.1021 23.6292 24.6948 23.2219ZM9.89585 17.7083C5.5875 17.7083 2.08335 14.2042 2.08335 9.8958C2.08335 5.58745 5.5875 2.0833 9.89585 2.0833C14.2042 2.0833 17.7083 5.58745 17.7083 9.8958C17.7083 14.2042 14.2042 17.7083 9.89585 17.7083Z" fill="#8FA8C2"/>
</svg>
